{
    "m2_max_g1" : "m1_max_g2",
    "m2_max_g2" : "m1_max_g2",
    "mass_mean2_g2" : "mass_mean1_g2",
    "mass_mean2_g1" : "mass_mean1_g2",
    "mass_sigma2_g2" : "mass_sigma1_g2",
    "mass_sigma2_g1" : "mass_sigma1_g2"
}
